
// ==========================================================================
//  GPPG error listing for yacc source file <SimpleYacc.y>
// ==========================================================================
//  Version:  1.3.6
//  Machine:  OLEG-HP
//  DateTime: 19.11.2015 21:47:12
//  UserName: Oleg
// ==========================================================================


%{
// Ýòè îáúÿâëåíèÿ äîáàâëÿþòñÿ â êëàññ GPPGParser, ïðåäñòàâëÿþùèé ñîáîé ïàðñåð, ãåíåðèðóåìûé ñèñòåìîé gppg
    public Parser(AbstractScanner<int, LexLocation> scanner) : base(scanner) { }
%}

%output = SimpleYacc.cs

%namespace SimpleParser

%token BEGIN END CYCLE INUM RNUM ID ASSIGN SEMICOLON VAR COLON

%%
// Error: NonTerminal symbol "id" has no productions
// Warning: Terminating id fixes the following size-4 NonTerminal set
   // {var, decls, decl, id}
// Error: There are 4 non-terminating NonTerminal Symbols
   //  {var, decls, decl, id}
// ------------------------------------------------------------------

progr   : block
		;

stlist	: statement 
		| stlist SEMICOLON statement 
		;

var		: VAR decls SEMICOLON
		;

decls	: decl
		| decls COLON decl
		;

decl	: id
		;


statement: assign
		| block  
		| cycle  
		| var
		;

ident 	: ID 
		;
	
assign 	: ident ASSIGN expr 
		;

expr	: ident  
		| INUM 
		;

block	: BEGIN stlist END 
		;

cycle	: CYCLE expr statement 
		;
	
%%
// ==========================================================================

